…
fragments_near_fragments <- identify_fragments %>%
  filter(HQ_hits == "fragment" & 
           (lead(HQ_hits) == "fragment" & distance_from_next < 100) | 
           (lag(HQ_hits) == "fragment" & distance_from_previous < 100)) %>% filter(perc_div < 20)
    
fragments_near_HQ <- identify_fragments %>% filter(HQ_hits == "HQ" | (lead(HQ_hits) == "HQ" & distance_from_next < 100) | (lag(HQ_hits) == "HQ" & distance_from_previous < 100)) %>% filter(perc_div < 20) %>% bind_rows(fragments_near_fragments) %>% arrange(strain, query_sequence, position_in_query_begin)

(insertions <- fragments_near_HQ %>% group_by(strain) %>% mutate(insertion_number = cumsum(distance_from_previous > 100) + 1) %>% ungroup() %>% select(-position_in_query_left) %>% group_by(insertion_number, strain) %>% filter(sum(length) > 4500) %>% ungroup() %>% group_by(strain, query_sequence) %>% mutate(insertion_number = cumsum(distance_from_previous > 100) + 1) %>% ungroup() %>% distinct())
```

    ## # A tibble: 432 × 17
    ##    SWscore perc_div perc_del perc_ins query_sequence position_in_query_begin
    ##      <dbl>    <dbl>    <dbl>    <dbl> <chr>                            <dbl>
    ##  1    5010     1.39     0.69     1.21 CM034718.1                     6130345
    ##  2   42769     0.17     0.23     0.9  CM034718.1                     6130870
    ##  3    4681     1.76     0        0.18 CM034718.1                    14085675
    ##  4   40380     0.09     0.26     0.09 CM034718.1                    14086194
    ##  5   39626     0.15     1.1      0.11 CM034718.1                    20111890
    ##  6    4698     0.88     0.17     0.88 CM034718.1                    20116464
    ##  7    4642     0.89     0.88     0.88 CM034718.1                    20122293
    ##  8   39531     0.19     1.13     0.11 CM034718.1                    20122813
    ##  9   40513     0.04     0.19     0.11 CM034718.1                    20157002
    ## 10    4640     0.36     1.45     0.18 CM034718.1                    20161632
    ## # ℹ 422 more rows
    ## # ℹ 11 more variables: position_in_query_end <dbl>, strand <chr>,
    ## #   position_in_repeat_begin <dbl>, position_in_repeat_end <dbl>,
    ## #   position_in_repeat_left <chr>, strain <chr>, length <dbl>,
    ## #   distance_from_previous <dbl>, distance_from_next <dbl>, HQ_hits <chr>,
    ## #   insertion_number <dbl>
…
