…
fragments_near_fragments <- identify_fragments %>%
  filter(HQ_hits == "fragment" & 
           (lead(HQ_hits) == "fragment" & distance_from_next < 100) | 
           (lag(HQ_hits) == "fragment" & distance_from_previous < 100)) %>% filter(perc_div < 20)
    
fragments_near_HQ <- identify_fragments %>% filter(HQ_hits == "HQ" | (lead(HQ_hits) == "HQ" & distance_from_next < 100) | (lag(HQ_hits) == "HQ" & distance_from_previous < 100)) %>% filter(perc_div < 20) %>% bind_rows(fragments_near_fragments) %>% arrange(strain, query_sequence, position_in_query_begin)

(insertions <- fragments_near_HQ %>% group_by(strain) %>% mutate(insertion_number = cumsum(distance_from_previous > 100) + 1) %>% ungroup() %>% select(-position_in_query_left) %>% group_by(insertion_number, strain) %>% filter(sum(length) > 4500) %>% ungroup() %>% group_by(strain, query_sequence) %>% mutate(insertion_number = cumsum(distance_from_previous > 100) + 1) %>% ungroup() %>% distinct())
```

    ## # A tibble: 541 × 17
    ##    SWscore perc_div perc_del perc_ins query_sequence    position_in_query_begin
    ##      <dbl>    <dbl>    <dbl>    <dbl> <chr>                               <dbl>
    ##  1    1243     3.92     3.92     0    JAECWI010000225.1                  148566
    ##  2    5151     4.73     1.66     0.75 JAECWI010000225.1                  148717
    ##  3    8413     2.57     0.4      1.53 JAECWI010000225.1                  149352
    ##  4     645     7.32     0        0    JAECWI010000225.1                  150340
    ##  5    8469     4.79     1.83     0.72 JAECWI010000225.1                  150418
    ##  6    2092     6.71     3.87     0.34 JAECWI010000225.1                  151465
    ##  7     865     2.88     0        0    JAECWI010000243.1                    8290
    ##  8   42048     0.39     0.26     0.04 JAECWI010000243.1                    8346
    ##  9    2734     0.96     0        0    JAECWI010000243.1                   13048
    ## 10    3048     0.87     1.16     0    JAECWI010000243.1                   13314
    ## # ℹ 531 more rows
    ## # ℹ 11 more variables: position_in_query_end <dbl>, strand <chr>,
    ## #   position_in_repeat_begin <dbl>, position_in_repeat_end <dbl>,
    ## #   position_in_repeat_left <chr>, strain <chr>, length <dbl>,
    ## #   distance_from_previous <dbl>, distance_from_next <dbl>, HQ_hits <chr>,
    ## #   insertion_number <dbl>
…
``` r
(blast <- read_tsv("/Volumes/EXT-RICCARDO/Dmel-spoink/phylogeny-species/insertions-blasted.tsv", col_names = c("consensus","insertion","pid","q_len","ali_len","mismatches","gap_opens","q_start","q_end","s_start","s_end","evalue","bitscore")))
```

    ## Rows: 1204 Columns: 13
    ## ── Column specification ────────────────────────────────────────────────────────
    ## Delimiter: "\t"
    ## chr  (2): consensus, insertion
    ## dbl (11): pid, q_len, ali_len, mismatches, gap_opens, q_start, q_end, s_star...
    ## 
    ## ℹ Use `spec()` to retrieve the full column specification for this data.
    ## ℹ Specify the column types or set `show_col_types = FALSE` to quiet this message.

    ## # A tibble: 1,204 × 13
    ##    consensus insertion   pid q_len ali_len mismatches gap_opens q_start q_end
    ##    <chr>     <chr>     <dbl> <dbl>   <dbl>      <dbl>     <dbl>   <dbl> <dbl>
    ##  1 spoink    DmelSo-10  99.9  5217    5216          2         2       1  5216
    ##  2 spoink    DmelSo-10 100    5217     350          0         0    4868  5217
    ##  3 spoink    DmelSo-10 100    5217     349          0         0       1   349
    ##  4 spoink    DmelSo-10  96.0  5217     151          6         0    4365  4515
    ##  5 spoink    DmelSo-10  96.0  5217     151          6         0    4326  4476
    ##  6 spoink    DmelSo-10  93.8  5217     112          7         0    4404  4515
    ##  7 spoink    DmelSo-10  93.8  5217     112          7         0    4326  4437
    ##  8 spoink    DmelR1-18  99.9  5217    5219          0         4       2  5217
    ##  9 spoink    DmelR1-18 100    5217     349          0         0    4869  5217
    ## 10 spoink    DmelR1-18  99.7  5217     351          0         1       1   350
    ## # ℹ 1,194 more rows
    ## # ℹ 4 more variables: s_start <dbl>, s_end <dbl>, evalue <dbl>, bitscore <dbl>

``` r
(max_hits <- blast %>% group_by(insertion) %>% filter(ali_len==max(ali_len), ali_len>4173, pid>80)) # 4173 is the 80% of the Spoink length
```

    ## # A tibble: 144 × 13
    ## # Groups:   insertion [144]
    ##    consensus insertion   pid q_len ali_len mismatches gap_opens q_start q_end
    ##    <chr>     <chr>     <dbl> <dbl>   <dbl>      <dbl>     <dbl>   <dbl> <dbl>
    ##  1 spoink    DmelSo-10  99.9  5217    5216          2         2       1  5216
    ##  2 spoink    DmelR1-18  99.9  5217    5219          0         4       2  5217
    ##  3 spoink    DmelR7-12  99.9  5217    5217          1         4       2  5217
    ##  4 spoink    DmelSo-2   99.9  5217    5217          4         3       2  5217
    ##  5 spoink    DmelR1-25  99.8  5217    5223          1         4       1  5216
    ##  6 spoink    DmelSo-3   99.8  5217    5218          0         4       2  5217
    ##  7 spoink    DmelSo-1   99.8  5217    5222          3         3       1  5216
    ##  8 spoink    DmelR1-2   99.8  5217    5217          1         6       2  5216
    ##  9 spoink    DmelR7-16  99.8  5217    5220          4         6       2  5217
    ## 10 spoink    DmelR1-19  99.7  5217    5228          0         8       2  5217
    ## # ℹ 134 more rows
    ## # ℹ 4 more variables: s_start <dbl>, s_end <dbl>, evalue <dbl>, bitscore <dbl>
…
